{
  "$schema":"http://json-schema.org/draft-06/schema",
  "title": "Matches filter",
  "type": "object",
  "properties": {
    "has_photo": {
      "type": "boolean",
      "title": "Has photo"
    },
    "in_contact": {
      "type": "boolean",
      "title": "In contact"
    },
    "favourite": {
      "type": "boolean",
      "title": "Favourite"
    },
    "compatibility_score_min": {
      "type": "integer",
      "title": "Compatibility Score Min",
      "minimum": 1,
      "maximum": 99
    },
    "compatibility_score_max": {
      "type": "integer",
      "title": "Compatibility Score Max",
      "minimum": 1,
      "maximum": 99
    },
    "age_min": {
      "type": "integer",
      "title": "Age Min",
      "minimum": 18,
      "maximum": 95
    },
    "age_max": {
      "type": "integer",
      "title": "Age Max",
      "minimum": 18,
      "maximum": 95
    },
    "height_min": {
      "type": "integer",
      "title": "Height Min",
      "minimum": 135,
      "maximum": 210
    },
    "height_max": {
      "type": "integer",
      "title": "Height Max",
      "minimum": 135,
      "maximum": 210
    },
    "distance": {
      "type": "number",
      "title": "Distance",
      "anyOf": [
        {
          "type": "number",
          "title": "< 30 km",
          "enum": [
            30
          ]
        },
        {
          "type": "number",
          "title": "60",
          "enum": [
            60
          ]
        },
        {
          "type": "number",
          "title": "90",
          "enum": [
            90
          ]
        },
        {
          "type": "number",
          "title": "120",
          "enum": [
            120
          ]
        },
        {
          "type": "number",
          "title": "150",
          "enum": [
            150
          ]
        },
        {
          "type": "number",
          "title": "180",
          "enum": [
            180
          ]
        },
        {
          "type": "number",
          "title": "210",
          "enum": [
            210
          ]
        },
        {
          "type": "number",
          "title": "240",
          "enum": [
            240
          ]
        },
        {
          "type": "number",
          "title": "270",
          "enum": [
            270
          ]
        },
        {
          "type": "number",
          "title": "> 300 km",
          "enum": [
            300
          ]
        }
      ]
    }
  }
}